%ValueTab 0 0 0 0 0 0 0 0 0 0 0 0 0 0 0 0 0 0 0 0 100 100 40 1 
%PreviousValue 0 0 0 0 0 0 0 0 0 
%MinimumValue 0 0 0 0 0 0 0 0 

%ValueTab 9 1 1 9 1 1 9 9 0 5 5 1 5 1 5 5 5 5 0 5 300 300 10 2 
%PreviousValue 9 1 1 9 1 1 9 9 0 
%MinimumValue 9 1 1 9 1 1 9 9 

%ValueTab 10 1 1 9 1 1 11 11 0 6 5 1 5 1 5 6 5 5 0 5 362 362 11 3 
%PreviousValue 10 1 1 9 1 1 11 11 0 
%MinimumValue 10 1 1 9 1 1 11 11 

%ValueTab 11 1 1 12 1 1 11 11 2 6 7 1 7 1 7 6 5 10 0 5 386 386 14 4 
%PreviousValue 11 1 1 12 1 1 11 11 2 
%MinimumValue 11 1 1 12 1 1 11 11 

%ValueTab 11 1 1 16 1 1 11 11 2 6 9 1 9 1 9 6 5 10 0 5 412 412 15 5 
%PreviousValue 11 1 1 16 1 1 11 11 2 
%MinimumValue 11 1 1 16 1 1 11 11 

%ValueTab 11 1 1 21 1 1 11 11 0 6 11 1 11 1 11 6 5 15 0 5 440 440 14 6 
%PreviousValue 11 1 1 21 1 1 11 11 0 
%MinimumValue 11 1 1 21 1 1 11 11 

%ValueTab 11 1 1 24 1 1 11 11 2 6 13 1 13 1 13 6 5 15 0 5 470 470 17 7 
%PreviousValue 11 1 1 24 1 1 11 11 2 
%MinimumValue 11 1 1 24 1 1 11 11 

